// Jest Snapshot v1, https://goo.gl/fbAQLP

exports[`GlobalHeader.vue template snapshot 1`] = `
<header
  class="GlobalHeader"
>
  <div
    class="Logo GlobalHeader_Logo"
  >
    <img
      alt="Vue logo"
      class="Logo_Img"
      src="../assets/logo.png"
    />
  </div>
   
  <span
    class="GlobalHeader_SiteTitle"
  >
    <div
      class="SiteTitle"
    >
      
  test site title

    </div>
  </span>
   
  <div
    class="Menu GlobalHeader_Menu"
  >
    <div
      class="MenuItem Menu_Item"
    >
      <span
        class="MenuItem_Label"
      >
        About
      </span>
    </div>
    <div
      class="MenuItem Menu_Item"
    >
      <span
        class="MenuItem_Label"
      >
        Hoge
      </span>
    </div>
  </div>
</header>
`;
